{
  "type": "service_account",
  "project_id": "se331-project-940b3",
  "private_key_id": "a0f64602d34b8dbd3d60f362f1fdf6f43a548b45",
  "private_key": "-----BEGIN PRIVATE KEY-----\nMIIEvQIBADANBgkqhkiG9w0BAQEFAASCBKcwggSjAgEAAoIBAQDadF4uQCMFrxtq\nVmm1om/uOEwpeHg8jhNF5F99mqLIJjzy2ioGyqmkd+UMMYUC9gPMpbsPxpHpwMRr\n/S2GAHTZrangHQVWmxRZ3eg2QMvmZ5gd4jJeU3yGf+R16qHDt5btBxu9VN7EUCuc\nXUihPqZgCleuIbuH/x181sGQOehFSeuwLjH1F/V/Uwrz49QawlC6VKNToy9IQiEP\nPXQByyGqEv28UjSv8H/0DUKmGN3BDcPYjlVCZKRVOZBgQPRm29WX5ZcOofWkn2e/\nmErqdiTvEWhzftpG3lvrvduHSXQomeFO/liQfwTIR6xzgfl1pxMl7TEG2u7GoFqv\nWhI9AGC/AgMBAAECggEAT74YvwNUhXelJ00B63avKyNL0fuS0HAAYwv5O41eDHfA\n2dl/a9lA0bOeXbQZ3LnXKzX4McsHam+eg9j4bCjwfqFhGFkfoLydUiyp3lwK0kFQ\niuAOCNaq5yH6UHzkrd/vbPiiTJuVcc3eDYcTwyBudTJxTTQtE3ix1+dA4xfwTJIB\njyF2Ubdwg9JUfXc0kDTxBzPQll1QGlIWLyzP1t4vTgwpvpLOmkRjsKswsP3QwQsY\n/UGrFMR+Yv6YywYXbs5FGWza/17sZwInlwQd2A8FppkNBO60f2M7mAZ8jykg6vVY\nRJu6SgwVZmuIQT5Fnk0mp89F82g03AKI31rwDhJnMQKBgQDyJXDKIlzwB7kniUG7\noyImB9hEVSCKuXG/slh2riMvlAv/VmwQwc4j8p0/FMjfUA/6J0pXmoexTQGd7FMt\nxd5W5gKV2CLqbFRcZMY024Wc+pi5swwN4Fmdw/NelPTwznJBMAbYfffjwCjf/wSE\ngmjyblaa01yUUqMNjKKjEnbBlwKBgQDm8+4ygkW260fUannWjjBLyH0fVP8yiuqz\nCnF+V2lttlLCUJOiPnd5wPce8xUDQiIeDiok8fNdxPPF9k+e9hvwtOItHd0Iey3b\nOEftVBdC114uKzGf79NwKe4osNJrktiK7DvAmhAN4dqwtbJBzdAktYNT1kPIrofI\nwTYIiyFvGQKBgAuewlfg6EbYiAkerBneDUB39efpkeM2XQAPBfHED4oz95NsSUlQ\nk5zkAqnJTI5y4CFoC0hC8SoQAPjcI2255h6TcSJRufM3+aBpcZ2Nv062M+gNcJGl\n54cLpT0vtsVrks4QCPQQr3mtegity0C0pWak5uENLY8snAiFbDSZKTvHAoGBAIRz\nJose/P4/hs1CVyd+GiKME33xj/2bf6g4eAg99z+tTV8VOOXWL0zLJq5AOC/LMKfN\n9cuEWs7PEgLZFKaUfEeaZQ/8zXN8uTq81zs7e6+gtemCag5QSxFLasM5TSPWbouV\nmVsGv+hGO9YWDeoBL7qtwmhFPFCOD19Jt0RFDmKZAoGAFIJkOVHW6IBkTHe5n8aX\nmcg15Yl7Dj5MZdK1oL3s/8POGoZs3+C9XQWoxBbJg48r5slgEDLCY1AsVfOE3fPS\nYGdlJXQXqBibhG2g9sovTTHkHR5JXzMjTrGFUFJ+rRBKnpJ/dUAGm8a0ZMkwnyhE\nkoc2FYcayncpnift6FcSrA8=\n-----END PRIVATE KEY-----\n",
  "client_email": "se331-project-940b3@appspot.gserviceaccount.com",
  "client_id": "117711391548808164149",
  "auth_uri": "https://accounts.google.com/o/oauth2/auth",
  "token_uri": "https://oauth2.googleapis.com/token",
  "auth_provider_x509_cert_url": "https://www.googleapis.com/oauth2/v1/certs",
  "client_x509_cert_url": "https://www.googleapis.com/robot/v1/metadata/x509/se331-project-940b3%40appspot.gserviceaccount.com"
}
